module thgnx.aleph/gographql

go 1.15

require (
	github.com/99designs/gqlgen v0.13.0
	github.com/dgrijalva/jwt-go v3.2.0+incompatible
	github.com/go-chi/chi v4.1.2+incompatible // indirect
	github.com/go-sql-driver/mysql v1.5.0
	github.com/golang-migrate/migrate v3.5.4+incompatible
	github.com/golang-migrate/migrate/v4 v4.14.1 // indirect
	github.com/vektah/gqlparser/v2 v2.1.0
	golang.org/x/crypto v0.0.0-20201221181555-eec23a3978ad
)
